[
  {
    "name": "Branding",
    "settings": [
      {
        "type": "paragraph",
        "content": "Logo image"
      },
      {
        "type": "checkbox",
        "id": "logo-image",
        "label": "Yes"
      },
      {
        "type": "image",
        "id": "logo-image-file.png",
        "label": "Logo image file"
      },
      {
        "type": "select",
        "id": "logo-placement",
        "label": "Logo placement",
        "options": [
          {
            "value": "top-navbar",
            "label": "Top navbar"
          },
          {
            "value": "sidebar",
            "label": "Sidebar"
          },
          {
            "value": "above-main-content",
            "label": "Above main content"
          }
        ]
      },
      {
        "type": "image",
        "id": "favicon.png",
        "label": "Favicon"
      },
      {
        "type": "text",
        "id": "logo-icon-class",
        "label": "Logo icon class"
      },
      {
        "type": "paragraph",
        "content": "This is the icon class (such as \"icon icon-your-logo\") which enables you to use icons from the likes of Font Awesome, IcoMoon etc. If this is set, it overrides image and text."
      },
      {
        "type": "text",
        "id": "brand-byline",
        "label": "Byline"
      }
    ]
  },
  {
    "name": "Colour",
    "settings": [
      {
        "type": "header",
        "content": "General"
      },
      {
        "type": "color",
        "id": "brand-primary",
        "label": "Brand primary colour"
      },
      {
        "type": "color",
        "id": "background-colour",
        "label": "Background colour"
      },
      {
        "type": "color",
        "id": "heading-colour",
        "label": "Heading colour"
      },
      {
        "type": "color",
        "id": "text-colour",
        "label": "Text colour"
      },
      {
        "type": "color",
        "id": "link-colour",
        "label": "Link colour"
      },
      {
        "type": "color",
        "id": "button-colour",
        "label": "Button colour"
      },
      {
        "type": "color",
        "id": "button-text-colour",
        "label": "Button text colour"
      },
      {
        "type": "header",
        "content": "Footer"
      },
      {
        "type": "color",
        "id": "footer-background-colour",
        "label": "Footer background colour"
      },
      {
        "type": "color",
        "id": "footer-heading-colour",
        "label": "Footer heading colour"
      },
      {
        "type": "color",
        "id": "footer-link-colour",
        "label": "Footer link colour"
      },
      {
        "type": "color",
        "id": "footer-text-colour",
        "label": "Footer text colour"
      },
      {
        "type": "header",
        "content": "Navbar"
      },
      {
        "type": "color",
        "id": "main-navbar-background-colour",
        "label": "Navbar main background colour"
      },
      {
        "type": "color",
        "id": "main-navbar-link-colour",
        "label": "Navbar main link colour"
      },
      {
        "type": "color",
        "id": "navbar-background-colour",
        "label": "Navbar top and footer background colour"
      },
      {
        "type": "color",
        "id": "navbar-link-colour",
        "label": "Navbar top and footer link colour"
      },
      {
        "type": "header",
        "content": "Sidebar"
      },
      {
        "type": "color",
        "id": "sidebar-background-colour",
        "label": "Sidebar background colour"
      },
      {
        "type": "color",
        "id": "sidebar-heading-colour",
        "label": "Sidebar heading colour"
      },
      {
        "type": "color",
        "id": "sidebar-link-colour",
        "label": "Sidebar link colour"
      },
      {
        "type": "color",
        "id": "sidebar-text-colour",
        "label": "Sidebar text colour"
      }
    ]
  },
  {
    "name": "Design",
    "settings": [
      {
        "type": "paragraph",
        "content": "Round avatars"
      },
      {
        "type": "checkbox",
        "id": "round-avatars",
        "label": "Yes"
      },
      {
        "type": "paragraph",
        "content": "Show borders"
      },
      {
        "type": "checkbox",
        "id": "show-borders",
        "label": "Yes"
      },
      {
        "type": "paragraph",
        "content": "Site background image"
      },
      {
        "type": "checkbox",
        "id": "site-background-image",
        "label": "Yes"
      },
      {
        "type": "image",
        "id": "site-background-image-file.jpg",
        "label": "Site background image file"
      },
      {
        "type": "text",
        "id": "site-background-image-position",
        "label": "Site background image position",
        "default": "center top"
      },
      {
        "type": "select",
        "id": "site-background-image-repeat",
        "label": "Site background image repeat",
        "options": [
          {
            "value": "repeat",
            "label": "repeat"
          },
          {
            "value": "repeat-x",
            "label": "repeat-x"
          },
          {
            "value": "repeat-y",
            "label": "repeat-y"
          },
          {
            "value": "no-repeat",
            "label": "no-repeat"
          },
          {
            "value": "inherit",
            "label": "inherit"
          }
        ]
      }
    ]
  },
  {
    "name": "Layout",
    "settings": [
      {
        "type": "text",
        "id": "container-width-small-devices",
        "label": "Container width, small devices",
        "default": "720px"
      },
      {
        "type": "text",
        "id": "container-width-medium-devices",
        "label": "Container width, medium devices",
        "default": "970px"
      },
      {
        "type": "text",
        "id": "container-width-large-devices",
        "label": "Container width, large devices",
        "default": "1170px"
      },
      {
        "type": "select",
        "id": "thumbnails-per-row-mobile",
        "label": "Thumbnails per row, mobile",
        "options": [
          {
            "value": "1",
            "label": "1"
          },
          {
            "value": "2",
            "label": "2"
          },
          {
            "value": "3",
            "label": "3"
          },
          {
            "value": "4",
            "label": "4"
          },
          {
            "value": "6",
            "label": "6"
          },
          {
            "value": "12",
            "label": "12"
          }
        ]
      },
      {
        "type": "select",
        "id": "thumbnails-per-row-tablet",
        "label": "Thumbnails per row, tablet",
        "options": [
          {
            "value": "1",
            "label": "1"
          },
          {
            "value": "2",
            "label": "2"
          },
          {
            "value": "3",
            "label": "3"
          },
          {
            "value": "4",
            "label": "4"
          },
          {
            "value": "6",
            "label": "6"
          },
          {
            "value": "12",
            "label": "12"
          }
        ]
      },
      {
        "type": "select",
        "id": "thumbnails-per-row-laptop",
        "label": "Thumbnails per row, laptop",
        "options": [
          {
            "value": "1",
            "label": "1"
          },
          {
            "value": "2",
            "label": "2"
          },
          {
            "value": "3",
            "label": "3"
          },
          {
            "value": "4",
            "label": "4"
          },
          {
            "value": "6",
            "label": "6"
          },
          {
            "value": "12",
            "label": "12"
          }
        ]
      },
      {
        "type": "select",
        "id": "thumbnails-per-row-desktop",
        "label": "Thumbnails per row, desktop",
        "options": [
          {
            "value": "1",
            "label": "1"
          },
          {
            "value": "2",
            "label": "2"
          },
          {
            "value": "3",
            "label": "3"
          },
          {
            "value": "4",
            "label": "4"
          },
          {
            "value": "6",
            "label": "6"
          },
          {
            "value": "12",
            "label": "12"
          }
        ]
      },
      {
        "type": "text",
        "id": "default-pagination",
        "label": "Default pagination",
        "default": "24"
      },
      {
        "type": "paragraph",
        "content": "If left blank pagination will be set to 50."
      },
      {
        "type": "select",
        "id": "product-page-image-placement",
        "label": "Product page image placement",
        "options": [
          {
            "value": "left",
            "label": "Left"
          },
          {
            "value": "right",
            "label": "Right"
          }
        ]
      },
      {
        "type": "paragraph",
        "content": "Show breadcrumbs"
      },
      {
        "type": "checkbox",
        "id": "show-breadcrumbs",
        "label": "Yes"
      },
      {
        "type": "paragraph",
        "content": "Window width thumbnail container"
      },
      {
        "type": "checkbox",
        "id": "window-width-thumbnail-container",
        "label": "Yes"
      }
    ]
  },
  {
    "name": "Homepage",
    "settings": [
      {
        "type": "page",
        "id": "homepage-content",
        "label": "Homepage content"
      },
      {
        "type": "collection",
        "id": "homepage-products-collection",
        "label": "Products collection"
      },
      {
        "type": "select",
        "id": "homepage-products-limit",
        "label": "Products limit",
        "options": [
          {
            "value": "1",
            "label": "1"
          },
          {
            "value": "2",
            "label": "2"
          },
          {
            "value": "3",
            "label": "3"
          },
          {
            "value": "4",
            "label": "4"
          },
          {
            "value": "6",
            "label": "6"
          },
          {
            "value": "12",
            "label": "12"
          },
          {
            "value": "unlimited",
            "label": "Unlimited"
          }
        ]
      },
      {
        "type": "link_list",
        "id": "homepage-collections-linklist",
        "label": "Collections linklist"
      },
      {
        "type": "select",
        "id": "homepage-collections-limit",
        "label": "Collections limit",
        "options": [
          {
            "value": "1-row",
            "label": "1 row"
          },
          {
            "value": "2-rows",
            "label": "2 rows"
          },
          {
            "value": "3-rows",
            "label": "3 rows"
          },
          {
            "value": "unlimited",
            "label": "Unlimited"
          }
        ]
      },
      {
        "type": "blog",
        "id": "homepage-blog",
        "label": "Blog"
      },
      {
        "type": "paragraph",
        "content": "Displays a grid of featured blog posts on your homepage."
      },
      {
        "type": "blog",
        "id": "facebook-album-blog",
        "label": "Facebook album blog"
      },
      {
        "type": "paragraph",
        "content": "Choose a blog that is linked to Facebook albums."
      },
      {
        "type": "link_list",
        "id": "features-linklist",
        "label": "Features linklist"
      },
      {
        "type": "paragraph",
        "content": "Setup a linklist with links pointing to collections or pages. The page or collection's description will be displayed on the homepage."
      },
      {
        "type": "paragraph",
        "content": "Instagram feed"
      },
      {
        "type": "checkbox",
        "id": "instagram-feed",
        "label": "Yes"
      },
      {
        "type": "paragraph",
        "content": "Show an Instagram feed on your home page. You can set the feeds [hashtag in the social settings](#instagram-default-hashtag)."
      },
      {
        "type": "blog",
        "id": "testimonials-blog",
        "label": "Testimonials blog"
      },
      {
        "type": "paragraph",
        "content": "If you wish to display testimonials on the homepage, you can create a blog for this. The title of the blog article needs to be the name of the person and the content of the article is the testimonial itself. You can place an optional image in the excerpt to represent their photo."
      },
      {
        "type": "text",
        "id": "testimonials-blog-post-limit",
        "label": "Testimonials blog post limit",
        "default": "4"
      },
      {
        "type": "paragraph",
        "content": "Maximum number of testimonial posts to show on the homepage."
      }
    ]
  },
  {
    "name": "Homepage Slider",
    "settings": [
      {
        "type": "header",
        "content": "Slide 1"
      },
      {
        "type": "select",
        "id": "homepage-custom-slide-1-order",
        "label": "Order",
        "options": [
          {
            "value": "1",
            "label": "1"
          },
          {
            "value": "2",
            "label": "2"
          },
          {
            "value": "3",
            "label": "3"
          },
          {
            "value": "4",
            "label": "4"
          },
          {
            "value": "5",
            "label": "5"
          }
        ],
        "default": "1"
      },
      {
        "type": "checkbox",
        "id": "homepage-custom-slide-1",
        "label": "Display Slide?",
        "default": true
      },
      {
        "type": "text",
        "id": "homepage-custom-slide-1-title",
        "label": "Title Text"
      },
      {
        "type": "color",
        "id": "homepage-custom-slide-1-title-color",
        "label": "Title Color",
        "default": "#333333"
      },
      {
        "type": "textarea",
        "id": "homepage-custom-slide-1-body",
        "label": "Body Text"
      },
      {
        "type": "color",
        "id": "homepage-custom-slide-1-body-color",
        "label": "Body Color",
        "default": "#333333"
      },
      {
        "type": "text",
        "id": "homepage-custom-slide-1-link",
        "label": "Link Text",
        "default": "Shop Now"
      },
      {
        "type": "text",
        "id": "homepage-custom-slide-1-link-url",
        "label": "Link URL"
      },
      {
        "type": "color",
        "id": "homepage-custom-slide-1-link-color",
        "label": "Link Text Color",
        "default": "#ffffff"
      },
      {
        "type": "color",
        "id": "homepage-custom-slide-1-link-bg-color",
        "label": "Link Background Color",
        "default": "#ed228b"
      },
      {
        "type": "select",
        "id": "homepage-custom-slide-1-link-hover",
        "label": "Link Hover",
        "options": [
          {
            "value": "darken",
            "label": "Darken"
          },
          {
            "value": "lighten",
            "label": "Lighten"
          }
        ],
        "default": "darken"
      },
      {
        "type": "image_picker",
        "id": "homepage-custom-slide-1-image",
        "label": "Image (transparent .png only)"
      },
      {
        "type": "select",
        "id": "homepage-custom-slide-1-text-col",
        "label": "Text Col Size",
        "options": [
          {
            "value": "col-md-8",
            "label": "8"
          },
          {
            "value": "col-md-7",
            "label": "7"
          },
          {
            "value": "col-md-6",
            "label": "6"
          },
          {
            "value": "col-md-5",
            "label": "5"
          },
          {
            "value": "col-md-4",
            "label": "4"
          }
        ],
        "default": "col-md-6"
      },
      {
        "type": "select",
        "id": "homepage-custom-slide-1-text-offset",
        "label": "Text Offset",
        "options": [
          {
            "value": "col-md-offset-5",
            "label": "5"
          },
          {
            "value": "col-md-offset-4",
            "label": "4"
          },
          {
            "value": "col-md-offset-3",
            "label": "3"
          },
          {
            "value": "col-md-offset-2",
            "label": "2"
          },
          {
            "value": "col-md-offset-1",
            "label": "1"
          },
          {
            "value": "col-md-offset-0",
            "label": "0"
          }
        ],
        "default": "col-md-offset-0"
      },
      {
        "type": "select",
        "id": "homepage-custom-slide-1-image-col",
        "label": "Image Col Size",
        "options": [
          {
            "value": "col-md-8",
            "label": "8"
          },
          {
            "value": "col-md-7",
            "label": "7"
          },
          {
            "value": "col-md-6",
            "label": "6"
          },
          {
            "value": "col-md-5",
            "label": "5"
          },
          {
            "value": "col-md-4",
            "label": "4"
          }
        ],
        "default": "col-md-6"
      },
      {
        "type": "select",
        "id": "homepage-custom-slide-1-image-offset",
        "label": "Image Negative Offset",
        "options": [
          {
            "value": "col-md-offset-5-",
            "label": "5"
          },
          {
            "value": "col-md-offset-4-",
            "label": "4"
          },
          {
            "value": "col-md-offset-3-",
            "label": "3"
          },
          {
            "value": "col-md-offset-2-",
            "label": "2"
          },
          {
            "value": "col-md-offset-1-",
            "label": "1"
          },
          {
            "value": "col-md-offset-0-",
            "label": "0"
          }
        ],
        "default": "col-md-offset-0-"
      },
      {
        "type": "paragraph",
        "content": "Text Col + Text Offset + Image Col - Image Negative Offset = 12"
      },
      {
        "type": "select",
        "id": "homepage-custom-slide-1-vert-align",
        "label": "Vertical Alignment",
        "options": [
          {
            "value": "align-items-top",
            "label": "Top"
          },
          {
            "value": "align-items-center",
            "label": "Center"
          },
          {
            "value": "align-items-bot",
            "label": "Bottom"
          }
        ],
        "default": "align-items-top"
      },
      {
        "type": "paragraph",
        "content": "Med Top Margin is only for screens smaller than 991px, but larger than 500px. This will pull the image up from beneath the text by the given amount, giving an overlay effect."
      },
      {
        "type": "select",
        "id": "homepage-custom-slide-1-med-top-margin",
        "label": "Med Top Margin",
        "options": [
          {
            "value": "-5%",
            "label": "-5%"
          },
          {
            "value": "-10%",
            "label": "-10%"
          },
          {
            "value": "-15%",
            "label": "-15%"
          },
          {
            "value": "-20%",
            "label": "-20%"
          },
          {
            "value": "-25%",
            "label": "-25%"
          }
        ],
        "default": "-5%"
      },
      {
        "type": "header",
        "content": "Slide 2"
      },
      {
        "type": "select",
        "id": "homepage-custom-slide-2-order",
        "label": "Order",
        "options": [
          {
            "value": "1",
            "label": "1"
          },
          {
            "value": "2",
            "label": "2"
          },
          {
            "value": "3",
            "label": "3"
          },
          {
            "value": "4",
            "label": "4"
          },
          {
            "value": "5",
            "label": "5"
          }
        ],
        "default": "2"
      },
      {
        "type": "checkbox",
        "id": "homepage-custom-slide-2",
        "label": "Display Slide?",
        "default": false
      },
      {
        "type": "text",
        "id": "homepage-custom-slide-2-title",
        "label": "Title Text"
      },
      {
        "type": "color",
        "id": "homepage-custom-slide-2-title-color",
        "label": "Title Color",
        "default": "#333333"
      },
      {
        "type": "textarea",
        "id": "homepage-custom-slide-2-body",
        "label": "Body Text"
      },
      {
        "type": "color",
        "id": "homepage-custom-slide-2-body-color",
        "label": "Body Color",
        "default": "#333333"
      },
      {
        "type": "text",
        "id": "homepage-custom-slide-2-link",
        "label": "Link Text",
        "default": "Shop Now"
      },
      {
        "type": "text",
        "id": "homepage-custom-slide-2-link-url",
        "label": "Link URL"
      },
      {
        "type": "color",
        "id": "homepage-custom-slide-2-link-color",
        "label": "Link Text Color",
        "default": "#ffffff"
      },
      {
        "type": "color",
        "id": "homepage-custom-slide-2-link-bg-color",
        "label": "Link Background Color",
        "default": "#ed228b"
      },
      {
        "type": "select",
        "id": "homepage-custom-slide-2-link-hover",
        "label": "Link Hover",
        "options": [
          {
            "value": "darken",
            "label": "Darken"
          },
          {
            "value": "lighten",
            "label": "Lighten"
          }
        ],
        "default": "darken"
      },
      {
        "type": "image_picker",
        "id": "homepage-custom-slide-2-image",
        "label": "Image (transparent .png only)"
      },
      {
        "type": "select",
        "id": "homepage-custom-slide-2-text-col",
        "label": "Text Col Size",
        "options": [
          {
            "value": "col-md-8",
            "label": "8"
          },
          {
            "value": "col-md-7",
            "label": "7"
          },
          {
            "value": "col-md-6",
            "label": "6"
          },
          {
            "value": "col-md-5",
            "label": "5"
          },
          {
            "value": "col-md-4",
            "label": "4"
          }
        ],
        "default": "col-md-6"
      },
      {
        "type": "select",
        "id": "homepage-custom-slide-2-text-offset",
        "label": "Text Offset",
        "options": [
          {
            "value": "col-md-offset-5",
            "label": "5"
          },
          {
            "value": "col-md-offset-4",
            "label": "4"
          },
          {
            "value": "col-md-offset-3",
            "label": "3"
          },
          {
            "value": "col-md-offset-2",
            "label": "2"
          },
          {
            "value": "col-md-offset-1",
            "label": "1"
          },
          {
            "value": "col-md-offset-0",
            "label": "0"
          }
        ],
        "default": "col-md-offset-0"
      },
      {
        "type": "select",
        "id": "homepage-custom-slide-2-image-col",
        "label": "Image Col Size",
        "options": [
          {
            "value": "col-md-8",
            "label": "8"
          },
          {
            "value": "col-md-7",
            "label": "7"
          },
          {
            "value": "col-md-6",
            "label": "6"
          },
          {
            "value": "col-md-5",
            "label": "5"
          },
          {
            "value": "col-md-4",
            "label": "4"
          }
        ],
        "default": "col-md-6"
      },
      {
        "type": "select",
        "id": "homepage-custom-slide-2-image-offset",
        "label": "Image Negative Offset",
        "options": [
          {
            "value": "col-md-offset-5-",
            "label": "5"
          },
          {
            "value": "col-md-offset-4-",
            "label": "4"
          },
          {
            "value": "col-md-offset-3-",
            "label": "3"
          },
          {
            "value": "col-md-offset-2-",
            "label": "2"
          },
          {
            "value": "col-md-offset-1-",
            "label": "1"
          },
          {
            "value": "col-md-offset-0-",
            "label": "0"
          }
        ],
        "default": "col-md-offset-0-"
      },
      {
        "type": "paragraph",
        "content": "Text Col + Text Offset + Image Col - Image Negative Offset = 12"
      },
      {
        "type": "select",
        "id": "homepage-custom-slide-2-vert-align",
        "label": "Vertical Alignment",
        "options": [
          {
            "value": "align-items-top",
            "label": "Top"
          },
          {
            "value": "align-items-center",
            "label": "Center"
          },
          {
            "value": "align-items-bot",
            "label": "Bottom"
          }
        ],
        "default": "align-items-top"
      },
      {
        "type": "paragraph",
        "content": "Med Top Margin is only for screens smaller than 991px, but larger than 500px. This will pull the image up from beneath the text by the given amount, giving an overlay effect."
      },
      {
        "type": "select",
        "id": "homepage-custom-slide-2-med-top-margin",
        "label": "Med Top Margin",
        "options": [
          {
            "value": "-5%",
            "label": "-5%"
          },
          {
            "value": "-10%",
            "label": "-10%"
          },
          {
            "value": "-15%",
            "label": "-15%"
          },
          {
            "value": "-20%",
            "label": "-20%"
          },
          {
            "value": "-25%",
            "label": "-25%"
          }
        ],
        "default": "-5%"
      },
      {
        "type": "header",
        "content": "Slide 3"
      },
      {
        "type": "select",
        "id": "homepage-custom-slide-3-order",
        "label": "Order",
        "options": [
          {
            "value": "1",
            "label": "1"
          },
          {
            "value": "2",
            "label": "2"
          },
          {
            "value": "3",
            "label": "3"
          },
          {
            "value": "4",
            "label": "4"
          },
          {
            "value": "5",
            "label": "5"
          }
        ],
        "default": "3"
      },
      {
        "type": "checkbox",
        "id": "homepage-custom-slide-3",
        "label": "Display Slide?",
        "default": false
      },
      {
        "type": "text",
        "id": "homepage-custom-slide-3-title",
        "label": "Title Text"
      },
      {
        "type": "color",
        "id": "homepage-custom-slide-3-title-color",
        "label": "Title Color",
        "default": "#333333"
      },
      {
        "type": "textarea",
        "id": "homepage-custom-slide-3-body",
        "label": "Body Text"
      },
      {
        "type": "color",
        "id": "homepage-custom-slide-3-body-color",
        "label": "Body Color",
        "default": "#333333"
      },
      {
        "type": "text",
        "id": "homepage-custom-slide-3-link",
        "label": "Link Text",
        "default": "Shop Now"
      },
      {
        "type": "text",
        "id": "homepage-custom-slide-3-link-url",
        "label": "Link URL"
      },
      {
        "type": "color",
        "id": "homepage-custom-slide-3-link-color",
        "label": "Link Text Color",
        "default": "#ffffff"
      },
      {
        "type": "color",
        "id": "homepage-custom-slide-3-link-bg-color",
        "label": "Link Background Color",
        "default": "#ed228b"
      },
      {
        "type": "select",
        "id": "homepage-custom-slide-3-link-hover",
        "label": "Link Hover",
        "options": [
          {
            "value": "darken",
            "label": "Darken"
          },
          {
            "value": "lighten",
            "label": "Lighten"
          }
        ],
        "default": "darken"
      },
      {
        "type": "image_picker",
        "id": "homepage-custom-slide-3-image",
        "label": "Image"
      },
      {
        "type": "select",
        "id": "homepage-custom-slide-3-text-col",
        "label": "Text Col Size",
        "options": [
          {
            "value": "col-md-8",
            "label": "8"
          },
          {
            "value": "col-md-7",
            "label": "7"
          },
          {
            "value": "col-md-6",
            "label": "6"
          },
          {
            "value": "col-md-5",
            "label": "5"
          },
          {
            "value": "col-md-4",
            "label": "4"
          }
        ],
        "default": "col-md-6"
      },
      {
        "type": "select",
        "id": "homepage-custom-slide-3-text-offset",
        "label": "Text Offset",
        "options": [
          {
            "value": "col-md-offset-5",
            "label": "5"
          },
          {
            "value": "col-md-offset-4",
            "label": "4"
          },
          {
            "value": "col-md-offset-3",
            "label": "3"
          },
          {
            "value": "col-md-offset-2",
            "label": "2"
          },
          {
            "value": "col-md-offset-1",
            "label": "1"
          },
          {
            "value": "col-md-offset-0",
            "label": "0"
          }
        ],
        "default": "col-md-offset-0"
      },
      {
        "type": "select",
        "id": "homepage-custom-slide-3-image-col",
        "label": "Image Col Size",
        "options": [
          {
            "value": "col-md-8",
            "label": "8"
          },
          {
            "value": "col-md-7",
            "label": "7"
          },
          {
            "value": "col-md-6",
            "label": "6"
          },
          {
            "value": "col-md-5",
            "label": "5"
          },
          {
            "value": "col-md-4",
            "label": "4"
          }
        ],
        "default": "col-md-6"
      },
      {
        "type": "select",
        "id": "homepage-custom-slide-3-image-offset",
        "label": "Image Negative Offset",
        "options": [
          {
            "value": "col-md-offset-5-",
            "label": "5"
          },
          {
            "value": "col-md-offset-4-",
            "label": "4"
          },
          {
            "value": "col-md-offset-3-",
            "label": "3"
          },
          {
            "value": "col-md-offset-2-",
            "label": "2"
          },
          {
            "value": "col-md-offset-1-",
            "label": "1"
          },
          {
            "value": "col-md-offset-0-",
            "label": "0"
          }
        ],
        "default": "col-md-offset-0-"
      },
      {
        "type": "select",
        "id": "homepage-custom-slide-3-vert-align",
        "label": "Vertical Alignment",
        "options": [
          {
            "value": "align-items-top",
            "label": "Top"
          },
          {
            "value": "align-items-center",
            "label": "Center"
          },
          {
            "value": "align-items-bot",
            "label": "Bottom"
          }
        ],
        "default": "align-items-top"
      },
      {
        "type": "paragraph",
        "content": "Med Top Margin is only for screens smaller than 991px. This will pull the image up from beneath the text by the given amount, giving an overlay effect"
      },
      {
        "type": "select",
        "id": "homepage-custom-slide-3-med-top-margin",
        "label": "Med Top Margin",
        "options": [
          {
            "value": "-5%",
            "label": "-5%"
          },
          {
            "value": "-10%",
            "label": "-10%"
          },
          {
            "value": "-15%",
            "label": "-15%"
          },
          {
            "value": "-20%",
            "label": "-20%"
          },
          {
            "value": "-25%",
            "label": "-25%"
          }
        ],
        "default": "-5%"
      },
      {
        "type": "header",
        "content": "Slide 4"
      },
      {
        "type": "select",
        "id": "homepage-custom-slide-4-order",
        "label": "Order",
        "options": [
          {
            "value": "1",
            "label": "1"
          },
          {
            "value": "2",
            "label": "2"
          },
          {
            "value": "3",
            "label": "3"
          },
          {
            "value": "4",
            "label": "4"
          },
          {
            "value": "5",
            "label": "5"
          }
        ],
        "default": "4"
      },
      {
        "type": "checkbox",
        "id": "homepage-custom-slide-4",
        "label": "Display Slide?",
        "default": false
      },
      {
        "type": "text",
        "id": "homepage-custom-slide-4-title",
        "label": "Title Text"
      },
      {
        "type": "color",
        "id": "homepage-custom-slide-4-title-color",
        "label": "Title Color",
        "default": "#333333"
      },
      {
        "type": "textarea",
        "id": "homepage-custom-slide-4-body",
        "label": "Body Text"
      },
      {
        "type": "color",
        "id": "homepage-custom-slide-4-body-color",
        "label": "Body Color",
        "default": "#333333"
      },
      {
        "type": "text",
        "id": "homepage-custom-slide-4-link",
        "label": "Link Text",
        "default": "Shop Now"
      },
      {
        "type": "text",
        "id": "homepage-custom-slide-4-link-url",
        "label": "Link URL"
      },
      {
        "type": "color",
        "id": "homepage-custom-slide-4-link-color",
        "label": "Link Text Color",
        "default": "#ffffff"
      },
      {
        "type": "color",
        "id": "homepage-custom-slide-4-link-bg-color",
        "label": "Link Background Color",
        "default": "#ed228b"
      },
      {
        "type": "select",
        "id": "homepage-custom-slide-4-link-hover",
        "label": "Link Hover",
        "options": [
          {
            "value": "darken",
            "label": "Darken"
          },
          {
            "value": "lighten",
            "label": "Lighten"
          }
        ],
        "default": "darken"
      },
      {
        "type": "image_picker",
        "id": "homepage-custom-slide-4-image",
        "label": "Image"
      },
      {
        "type": "select",
        "id": "homepage-custom-slide-4-text-col",
        "label": "Text Col Size",
        "options": [
          {
            "value": "col-md-8",
            "label": "8"
          },
          {
            "value": "col-md-7",
            "label": "7"
          },
          {
            "value": "col-md-6",
            "label": "6"
          },
          {
            "value": "col-md-5",
            "label": "5"
          },
          {
            "value": "col-md-4",
            "label": "4"
          }
        ],
        "default": "col-md-6"
      },
      {
        "type": "select",
        "id": "homepage-custom-slide-4-text-offset",
        "label": "Text Offset",
        "options": [
          {
            "value": "col-md-offset-5",
            "label": "5"
          },
          {
            "value": "col-md-offset-4",
            "label": "4"
          },
          {
            "value": "col-md-offset-3",
            "label": "3"
          },
          {
            "value": "col-md-offset-2",
            "label": "2"
          },
          {
            "value": "col-md-offset-1",
            "label": "1"
          },
          {
            "value": "col-md-offset-0",
            "label": "0"
          }
        ],
        "default": "col-md-offset-0"
      },
      {
        "type": "select",
        "id": "homepage-custom-slide-4-image-col",
        "label": "Image Col Size",
        "options": [
          {
            "value": "col-md-8",
            "label": "8"
          },
          {
            "value": "col-md-7",
            "label": "7"
          },
          {
            "value": "col-md-6",
            "label": "6"
          },
          {
            "value": "col-md-5",
            "label": "5"
          },
          {
            "value": "col-md-4",
            "label": "4"
          }
        ],
        "default": "col-md-6"
      },
      {
        "type": "select",
        "id": "homepage-custom-slide-4-image-offset",
        "label": "Image Negative Offset",
        "options": [
          {
            "value": "col-md-offset-5-",
            "label": "5"
          },
          {
            "value": "col-md-offset-4-",
            "label": "4"
          },
          {
            "value": "col-md-offset-3-",
            "label": "3"
          },
          {
            "value": "col-md-offset-2-",
            "label": "2"
          },
          {
            "value": "col-md-offset-1-",
            "label": "1"
          },
          {
            "value": "col-md-offset-0-",
            "label": "0"
          }
        ],
        "default": "col-md-offset-0-"
      },
      {
        "type": "select",
        "id": "homepage-custom-slide-4-vert-align",
        "label": "Vertical Alignment",
        "options": [
          {
            "value": "align-items-top",
            "label": "Top"
          },
          {
            "value": "align-items-center",
            "label": "Center"
          },
          {
            "value": "align-items-bot",
            "label": "Bottom"
          }
        ],
        "default": "align-items-top"
      },
      {
        "type": "paragraph",
        "content": "Med Top Margin is only for screens smaller than 991px. This will pull the image up from beneath the text by the given amount, giving an overlay effect"
      },
      {
        "type": "select",
        "id": "homepage-custom-slide-4-med-top-margin",
        "label": "Med Top Margin",
        "options": [
          {
            "value": "-5%",
            "label": "-5%"
          },
          {
            "value": "-10%",
            "label": "-10%"
          },
          {
            "value": "-15%",
            "label": "-15%"
          },
          {
            "value": "-20%",
            "label": "-20%"
          },
          {
            "value": "-25%",
            "label": "-25%"
          }
        ],
        "default": "-5%"
      },
      {
        "type": "header",
        "content": "Slide 5"
      },
      {
        "type": "select",
        "id": "homepage-custom-slide-5-order",
        "label": "Order",
        "options": [
          {
            "value": "1",
            "label": "1"
          },
          {
            "value": "2",
            "label": "2"
          },
          {
            "value": "3",
            "label": "3"
          },
          {
            "value": "4",
            "label": "4"
          },
          {
            "value": "5",
            "label": "5"
          }
        ],
        "default": "5"
      },
      {
        "type": "checkbox",
        "id": "homepage-custom-slide-5",
        "label": "Display Slide?",
        "default": false
      },
      {
        "type": "text",
        "id": "homepage-custom-slide-5-title",
        "label": "Title Text"
      },
      {
        "type": "color",
        "id": "homepage-custom-slide-5-title-color",
        "label": "Title Color",
        "default": "#333333"
      },
      {
        "type": "textarea",
        "id": "homepage-custom-slide-5-body",
        "label": "Body Text"
      },
      {
        "type": "color",
        "id": "homepage-custom-slide-5-body-color",
        "label": "Body Color",
        "default": "#333333"
      },
      {
        "type": "text",
        "id": "homepage-custom-slide-5-link",
        "label": "Link Text",
        "default": "Shop Now"
      },
      {
        "type": "text",
        "id": "homepage-custom-slide-5-link-url",
        "label": "Link URL"
      },
      {
        "type": "color",
        "id": "homepage-custom-slide-5-link-color",
        "label": "Link Text Color",
        "default": "#ffffff"
      },
      {
        "type": "color",
        "id": "homepage-custom-slide-5-link-bg-color",
        "label": "Link Background Color",
        "default": "#ed228b"
      },
      {
        "type": "select",
        "id": "homepage-custom-slide-5-link-hover",
        "label": "Link Hover",
        "options": [
          {
            "value": "darken",
            "label": "Darken"
          },
          {
            "value": "lighten",
            "label": "Lighten"
          }
        ],
        "default": "darken"
      },
      {
        "type": "image_picker",
        "id": "homepage-custom-slide-5-image",
        "label": "Image"
      },
      {
        "type": "select",
        "id": "homepage-custom-slide-5-text-col",
        "label": "Text Col Size",
        "options": [
          {
            "value": "col-md-8",
            "label": "8"
          },
          {
            "value": "col-md-7",
            "label": "7"
          },
          {
            "value": "col-md-6",
            "label": "6"
          },
          {
            "value": "col-md-5",
            "label": "5"
          },
          {
            "value": "col-md-4",
            "label": "4"
          }
        ],
        "default": "col-md-6"
      },
      {
        "type": "select",
        "id": "homepage-custom-slide-5-text-offset",
        "label": "Text Offset",
        "options": [
          {
            "value": "col-md-offset-5",
            "label": "5"
          },
          {
            "value": "col-md-offset-4",
            "label": "4"
          },
          {
            "value": "col-md-offset-3",
            "label": "3"
          },
          {
            "value": "col-md-offset-2",
            "label": "2"
          },
          {
            "value": "col-md-offset-1",
            "label": "1"
          },
          {
            "value": "col-md-offset-0",
            "label": "0"
          }
        ],
        "default": "col-md-offset-0"
      },
      {
        "type": "select",
        "id": "homepage-custom-slide-5-image-col",
        "label": "Image Col Size",
        "options": [
          {
            "value": "col-md-8",
            "label": "8"
          },
          {
            "value": "col-md-7",
            "label": "7"
          },
          {
            "value": "col-md-6",
            "label": "6"
          },
          {
            "value": "col-md-5",
            "label": "5"
          },
          {
            "value": "col-md-4",
            "label": "4"
          }
        ],
        "default": "col-md-6"
      },
      {
        "type": "select",
        "id": "homepage-custom-slide-5-image-offset",
        "label": "Image Negative Offset",
        "options": [
          {
            "value": "col-md-offset-5-",
            "label": "5"
          },
          {
            "value": "col-md-offset-4-",
            "label": "4"
          },
          {
            "value": "col-md-offset-3-",
            "label": "3"
          },
          {
            "value": "col-md-offset-2-",
            "label": "2"
          },
          {
            "value": "col-md-offset-1-",
            "label": "1"
          },
          {
            "value": "col-md-offset-0-",
            "label": "0"
          }
        ],
        "default": "col-md-offset-0-"
      },
      {
        "type": "select",
        "id": "homepage-custom-slide-5-vert-align",
        "label": "Vertical Alignment",
        "options": [
          {
            "value": "align-items-top",
            "label": "Top"
          },
          {
            "value": "align-items-center",
            "label": "Center"
          },
          {
            "value": "align-items-bot",
            "label": "Bottom"
          }
        ],
        "default": "align-items-top"
      },
      {
        "type": "paragraph",
        "content": "Med Top Margin is only for screens smaller than 991px. This will pull the image up from beneath the text by the given amount, giving an overlay effect"
      },
      {
        "type": "select",
        "id": "homepage-custom-slide-5-med-top-margin",
        "label": "Med Top Margin",
        "options": [
          {
            "value": "-5%",
            "label": "-5%"
          },
          {
            "value": "-10%",
            "label": "-10%"
          },
          {
            "value": "-15%",
            "label": "-15%"
          },
          {
            "value": "-20%",
            "label": "-20%"
          },
          {
            "value": "-25%",
            "label": "-25%"
          }
        ],
        "default": "-5%"
      }
    ]
  },
  {
    "name": "Typography",
    "settings": [
      {
        "type": "paragraph",
        "content": "Heading \"letterpress\""
      },
      {
        "type": "checkbox",
        "id": "heading-letterpress",
        "label": "Yes"
      },
      {
        "type": "header",
        "content": "Font body"
      },
      {
        "type": "text",
        "id": "font-body-custom",
        "label": "Custom font name"
      },
      {
        "type": "select",
        "id": "font-body",
        "label": "Fallback\/default",
        "options": [
          {
            "value": "",
            "label": ""
          },
          {
            "value": "Helvetica, Arial, sans-serif",
            "label": "Helvetica\/Arial",
            "group": "Sans-serif"
          },
          {
            "value": "Impact, Charcoal, Helvetica, Arial, sans-serif",
            "label": "Impact",
            "group": "Sans-serif"
          },
          {
            "value": "'Lucida Grande', 'Lucida Sans Unicode', 'Lucida Sans', Lucida, Helvetica, Arial, sans-serif",
            "label": "Lucida Grande",
            "group": "Sans-serif"
          },
          {
            "value": "Trebuchet MS, sans-serif",
            "label": "Trebuchet MS",
            "group": "Sans-serif"
          },
          {
            "value": "Verdana, Helvetica, Arial, sans-serif",
            "label": "Verdana",
            "group": "Sans-serif"
          },
          {
            "value": "Garamond, Baskerville, Caslon, serif",
            "label": "Garamond",
            "group": "Serif"
          },
          {
            "value": "Georgia, Utopia, 'Times New Roman', Times, serif",
            "label": "Georgia",
            "group": "Serif"
          },
          {
            "value": "Palatino, 'Palatino Linotype', 'Book Antiqua', serif",
            "label": "Palatino",
            "group": "Serif"
          },
          {
            "value": "'Times New Roman', Times, serif",
            "label": "Times New Roman",
            "group": "Serif"
          },
          {
            "value": "'Courier New', Courier, monospace",
            "label": "Courier New",
            "group": "Monospace"
          },
          {
            "value": "Monaco, 'Lucida Console', 'DejaVu Sans Mono', monospace",
            "label": "Monaco\/Lucida Console",
            "group": "Monospace"
          }
        ]
      },
      {
        "type": "text",
        "id": "font-body-weight",
        "label": "Weight"
      },
      {
        "type": "text",
        "id": "font-body-size",
        "label": "Size (eg 14px)"
      },
      {
        "type": "select",
        "id": "font-body-style",
        "label": "Style",
        "options": [
          {
            "value": "normal",
            "label": "Normal"
          },
          {
            "value": "italic",
            "label": "Italic"
          }
        ]
      },
      {
        "type": "select",
        "id": "font-body-case",
        "label": "Case",
        "options": [
          {
            "value": "normal",
            "label": "Normal (as typed)"
          },
          {
            "value": "lowercase",
            "label": "lowercase"
          },
          {
            "value": "uppercase",
            "label": "UPPERCASE"
          },
          {
            "value": "title-case",
            "label": "Title Case"
          }
        ]
      },
      {
        "type": "header",
        "content": "Font brand"
      },
      {
        "type": "text",
        "id": "font-brand-custom",
        "label": "Custom font name"
      },
      {
        "type": "select",
        "id": "font-brand",
        "label": "Fallback\/default",
        "options": [
          {
            "value": "",
            "label": ""
          },
          {
            "value": "Helvetica, Arial, sans-serif",
            "label": "Helvetica\/Arial",
            "group": "Sans-serif"
          },
          {
            "value": "Impact, Charcoal, Helvetica, Arial, sans-serif",
            "label": "Impact",
            "group": "Sans-serif"
          },
          {
            "value": "'Lucida Grande', 'Lucida Sans Unicode', 'Lucida Sans', Lucida, Helvetica, Arial, sans-serif",
            "label": "Lucida Grande",
            "group": "Sans-serif"
          },
          {
            "value": "Trebuchet MS, sans-serif",
            "label": "Trebuchet MS",
            "group": "Sans-serif"
          },
          {
            "value": "Verdana, Helvetica, Arial, sans-serif",
            "label": "Verdana",
            "group": "Sans-serif"
          },
          {
            "value": "Garamond, Baskerville, Caslon, serif",
            "label": "Garamond",
            "group": "Serif"
          },
          {
            "value": "Georgia, Utopia, 'Times New Roman', Times, serif",
            "label": "Georgia",
            "group": "Serif"
          },
          {
            "value": "Palatino, 'Palatino Linotype', 'Book Antiqua', serif",
            "label": "Palatino",
            "group": "Serif"
          },
          {
            "value": "'Times New Roman', Times, serif",
            "label": "Times New Roman",
            "group": "Serif"
          },
          {
            "value": "'Courier New', Courier, monospace",
            "label": "Courier New",
            "group": "Monospace"
          },
          {
            "value": "Monaco, 'Lucida Console', 'DejaVu Sans Mono', monospace",
            "label": "Monaco\/Lucida Console",
            "group": "Monospace"
          }
        ]
      },
      {
        "type": "text",
        "id": "font-brand-weight",
        "label": "Weight"
      },
      {
        "type": "text",
        "id": "font-brand-size",
        "label": "Size (eg 14px)"
      },
      {
        "type": "select",
        "id": "font-brand-style",
        "label": "Style",
        "options": [
          {
            "value": "normal",
            "label": "Normal"
          },
          {
            "value": "italic",
            "label": "Italic"
          }
        ]
      },
      {
        "type": "select",
        "id": "font-brand-case",
        "label": "Case",
        "options": [
          {
            "value": "normal",
            "label": "Normal (as typed)"
          },
          {
            "value": "lowercase",
            "label": "lowercase"
          },
          {
            "value": "uppercase",
            "label": "UPPERCASE"
          },
          {
            "value": "title-case",
            "label": "Title Case"
          }
        ]
      },
      {
        "type": "header",
        "content": "Font heading"
      },
      {
        "type": "text",
        "id": "font-heading-custom",
        "label": "Custom font name"
      },
      {
        "type": "select",
        "id": "font-heading",
        "label": "Fallback\/default",
        "options": [
          {
            "value": "",
            "label": ""
          },
          {
            "value": "Helvetica, Arial, sans-serif",
            "label": "Helvetica\/Arial",
            "group": "Sans-serif"
          },
          {
            "value": "Impact, Charcoal, Helvetica, Arial, sans-serif",
            "label": "Impact",
            "group": "Sans-serif"
          },
          {
            "value": "'Lucida Grande', 'Lucida Sans Unicode', 'Lucida Sans', Lucida, Helvetica, Arial, sans-serif",
            "label": "Lucida Grande",
            "group": "Sans-serif"
          },
          {
            "value": "Trebuchet MS, sans-serif",
            "label": "Trebuchet MS",
            "group": "Sans-serif"
          },
          {
            "value": "Verdana, Helvetica, Arial, sans-serif",
            "label": "Verdana",
            "group": "Sans-serif"
          },
          {
            "value": "Garamond, Baskerville, Caslon, serif",
            "label": "Garamond",
            "group": "Serif"
          },
          {
            "value": "Georgia, Utopia, 'Times New Roman', Times, serif",
            "label": "Georgia",
            "group": "Serif"
          },
          {
            "value": "Palatino, 'Palatino Linotype', 'Book Antiqua', serif",
            "label": "Palatino",
            "group": "Serif"
          },
          {
            "value": "'Times New Roman', Times, serif",
            "label": "Times New Roman",
            "group": "Serif"
          },
          {
            "value": "'Courier New', Courier, monospace",
            "label": "Courier New",
            "group": "Monospace"
          },
          {
            "value": "Monaco, 'Lucida Console', 'DejaVu Sans Mono', monospace",
            "label": "Monaco\/Lucida Console",
            "group": "Monospace"
          }
        ]
      },
      {
        "type": "text",
        "id": "font-heading-weight",
        "label": "Weight"
      },
      {
        "type": "text",
        "id": "font-heading-size",
        "label": "Size (eg 14px)"
      },
      {
        "type": "select",
        "id": "font-heading-style",
        "label": "Style",
        "options": [
          {
            "value": "normal",
            "label": "Normal"
          },
          {
            "value": "italic",
            "label": "Italic"
          }
        ]
      },
      {
        "type": "select",
        "id": "font-heading-case",
        "label": "Case",
        "options": [
          {
            "value": "normal",
            "label": "Normal (as typed)"
          },
          {
            "value": "lowercase",
            "label": "lowercase"
          },
          {
            "value": "uppercase",
            "label": "UPPERCASE"
          },
          {
            "value": "title-case",
            "label": "Title Case"
          }
        ]
      },
      {
        "type": "header",
        "content": "Font navbar"
      },
      {
        "type": "text",
        "id": "font-navbar-custom",
        "label": "Custom font name"
      },
      {
        "type": "select",
        "id": "font-navbar",
        "label": "Fallback\/default",
        "options": [
          {
            "value": "",
            "label": ""
          },
          {
            "value": "Helvetica, Arial, sans-serif",
            "label": "Helvetica\/Arial",
            "group": "Sans-serif"
          },
          {
            "value": "Impact, Charcoal, Helvetica, Arial, sans-serif",
            "label": "Impact",
            "group": "Sans-serif"
          },
          {
            "value": "'Lucida Grande', 'Lucida Sans Unicode', 'Lucida Sans', Lucida, Helvetica, Arial, sans-serif",
            "label": "Lucida Grande",
            "group": "Sans-serif"
          },
          {
            "value": "Trebuchet MS, sans-serif",
            "label": "Trebuchet MS",
            "group": "Sans-serif"
          },
          {
            "value": "Verdana, Helvetica, Arial, sans-serif",
            "label": "Verdana",
            "group": "Sans-serif"
          },
          {
            "value": "Garamond, Baskerville, Caslon, serif",
            "label": "Garamond",
            "group": "Serif"
          },
          {
            "value": "Georgia, Utopia, 'Times New Roman', Times, serif",
            "label": "Georgia",
            "group": "Serif"
          },
          {
            "value": "Palatino, 'Palatino Linotype', 'Book Antiqua', serif",
            "label": "Palatino",
            "group": "Serif"
          },
          {
            "value": "'Times New Roman', Times, serif",
            "label": "Times New Roman",
            "group": "Serif"
          },
          {
            "value": "'Courier New', Courier, monospace",
            "label": "Courier New",
            "group": "Monospace"
          },
          {
            "value": "Monaco, 'Lucida Console', 'DejaVu Sans Mono', monospace",
            "label": "Monaco\/Lucida Console",
            "group": "Monospace"
          }
        ]
      },
      {
        "type": "text",
        "id": "font-navbar-weight",
        "label": "Weight"
      },
      {
        "type": "text",
        "id": "font-navbar-size",
        "label": "Size (eg 14px)"
      },
      {
        "type": "select",
        "id": "font-navbar-style",
        "label": "Style",
        "options": [
          {
            "value": "normal",
            "label": "Normal"
          },
          {
            "value": "italic",
            "label": "Italic"
          }
        ]
      },
      {
        "type": "select",
        "id": "font-navbar-case",
        "label": "Case",
        "options": [
          {
            "value": "normal",
            "label": "Normal (as typed)"
          },
          {
            "value": "lowercase",
            "label": "lowercase"
          },
          {
            "value": "uppercase",
            "label": "UPPERCASE"
          },
          {
            "value": "title-case",
            "label": "Title Case"
          }
        ]
      }
    ]
  },
  {
    "name": "Blog",
    "settings": [
      {
        "type": "select",
        "id": "blog-list-limit",
        "label": "Blog list limit",
        "options": [
          {
            "value": "1",
            "label": "1"
          },
          {
            "value": "2",
            "label": "2"
          },
          {
            "value": "3",
            "label": "3"
          }
        ]
      },
      {
        "type": "paragraph",
        "content": "Number of blog articles shown in the footer and sidebar blog lists."
      },
      {
        "type": "paragraph",
        "content": "Show author"
      },
      {
        "type": "checkbox",
        "id": "show-author",
        "label": "Yes"
      },
      {
        "type": "paragraph",
        "content": "Show author bios"
      },
      {
        "type": "checkbox",
        "id": "show-author-bios",
        "label": "Yes"
      },
      {
        "type": "text",
        "id": "truncate-words",
        "label": "Truncate words",
        "default": "25"
      },
      {
        "type": "paragraph",
        "content": "Number of words to show in the blog article listings. Leave blank if you want to show the entire article."
      },
      {
        "type": "paragraph",
        "content": "Use Gravatar for avatars"
      },
      {
        "type": "checkbox",
        "id": "use-gravatars",
        "label": "Yes"
      },
      {
        "type": "select",
        "id": "event-date-format",
        "label": "Events date tag format",
        "options": [
          {
            "value": "dd\/mm\/yyyy",
            "label": "dd\/mm\/yyy"
          },
          {
            "value": "mm\/dd\/yyyy",
            "label": "mm\/dd\/yyyy"
          }
        ]
      }
    ]
  },
  {
    "name": "Products",
    "settings": [
      {
        "type": "paragraph",
        "content": "Show price if 0"
      },
      {
        "type": "checkbox",
        "id": "show-price-if-zero",
        "label": "Yes"
      },
      {
        "type": "paragraph",
        "content": "Display vendor description"
      },
      {
        "type": "checkbox",
        "id": "display-vendor-description",
        "label": "Yes"
      },
      {
        "type": "paragraph",
        "content": "If checked and a collection exists with the same handle as the vendor handle, the collection description (and image) will be displayed at the bottom of the product page."
      },
      {
        "type": "paragraph",
        "content": "Enable image lightbox"
      },
      {
        "type": "checkbox",
        "id": "enable-image-lightbox",
        "label": "Yes"
      },
      {
        "type": "paragraph",
        "content": "Enable image zoom"
      },
      {
        "type": "checkbox",
        "id": "enable-image-zoom",
        "label": "Yes"
      },
      {
        "type": "text",
        "id": "hidden-tag-prefixes",
        "label": "Hidden tag prefixes",
        "default": "hd,hidden"
      },
      {
        "type": "paragraph",
        "content": "Comma-separated list of tag prefixes to never display on the site. These can be used for creating more complex collection."
      },
      {
        "type": "paragraph",
        "content": "Show product description as tabs"
      },
      {
        "type": "checkbox",
        "id": "product-description-as-tabs",
        "label": "Yes"
      },
      {
        "type": "paragraph",
        "content": "h2's in your products description will be used to determine the starting of each tab."
      },
      {
        "type": "link_list",
        "id": "product-tab-linklist",
        "label": "Product tab linklist"
      },
      {
        "type": "paragraph",
        "content": "A linklist of static pages that are generic across all products."
      },
      {
        "type": "text",
        "id": "secondary-call-to-action-url",
        "label": "Secondary call to action URL"
      },
      {
        "type": "paragraph",
        "content": "E.g. link to your contact page for customers who want a customised version of your product."
      },
      {
        "type": "paragraph",
        "content": "Show product collections"
      },
      {
        "type": "checkbox",
        "id": "show-product-collections",
        "label": "Yes"
      },
      {
        "type": "paragraph",
        "content": "Show product tags"
      },
      {
        "type": "checkbox",
        "id": "show-product-tags",
        "label": "Yes"
      },
      {
        "type": "paragraph",
        "content": "Show product type"
      },
      {
        "type": "checkbox",
        "id": "show-product-type",
        "label": "Yes"
      },
      {
        "type": "paragraph",
        "content": "Show product vendor"
      },
      {
        "type": "checkbox",
        "id": "show-product-vendor",
        "label": "Yes"
      },
      {
        "type": "paragraph",
        "content": "Show unavailable products"
      },
      {
        "type": "checkbox",
        "id": "show-unavailable-products",
        "label": "Yes"
      },
      {
        "type": "paragraph",
        "content": "Show notify me form when sold out"
      },
      {
        "type": "checkbox",
        "id": "show-notify-me",
        "label": "Yes"
      },
      {
        "type": "paragraph",
        "content": "Show related products"
      },
      {
        "type": "checkbox",
        "id": "show-related-products",
        "label": "Yes"
      },
      {
        "type": "paragraph",
        "content": "Show social share links"
      },
      {
        "type": "checkbox",
        "id": "show-social-share-links",
        "label": "Yes"
      },
      {
        "type": "collection",
        "id": "secondary-related-collection",
        "label": "Secondary collection on products page"
      },
      {
        "type": "paragraph",
        "content": "Show stock availability"
      },
      {
        "type": "checkbox",
        "id": "show-stock-availability",
        "label": "Yes"
      },
      {
        "type": "text",
        "id": "max-stock-availability",
        "label": "Max stock availability fallback",
        "default": "100"
      },
      {
        "type": "paragraph",
        "content": "This can be overridden on a product-by-product basis with the meta feild 'availability.max-stock-level' inside a product. Or on specific variants by using the meta feild 'availability.max-stock-level-[variant sku here]'."
      },
      {
        "type": "paragraph",
        "content": "Colour stock availability as traffic light"
      },
      {
        "type": "checkbox",
        "id": "colour-stock-availability",
        "label": "Yes"
      }
    ]
  },
  {
    "name": "Collections",
    "settings": [
      {
        "type": "select",
        "id": "featured-image-position",
        "label": "Featured Image Position",
        "options": [
          {
            "value": "do-not-show",
            "label": "Do Not Show"
          },
          {
            "value": "half-width-left",
            "label": "Half Width Left"
          },
          {
            "value": "half-width-right",
            "label": "Half Width Right"
          },
          {
            "value": "full-width-above",
            "label": "Full Width Above"
          }
        ]
      },
      {
        "type": "paragraph",
        "content": "Overlay title on hover"
      },
      {
        "type": "checkbox",
        "id": "overlay-title-on-hover",
        "label": "Yes"
      },
      {
        "type": "color",
        "id": "overlay-title-on-hover-background-color",
        "label": "Overlay title on hover background color"
      },
      {
        "type": "select",
        "id": "show-on-sale-badge",
        "label": "Show “On Sale” badge",
        "options": [
          {
            "value": "as-text",
            "label": "as text"
          },
          {
            "value": "as-percentage-off",
            "label": "as percentage off"
          }
        ]
      },
      {
        "type": "paragraph",
        "content": "Show “Compare At” Price"
      },
      {
        "type": "checkbox",
        "id": "show-compare-at-price",
        "label": "Yes"
      },
      {
        "type": "paragraph",
        "content": "Show Quick Cart"
      },
      {
        "type": "checkbox",
        "id": "quick-cart",
        "label": "Yes"
      },
      {
        "type": "paragraph",
        "content": "Show products stock availability"
      },
      {
        "type": "checkbox",
        "id": "show-stock-availability-on-collection",
        "label": "Yes"
      },
      {
        "type": "paragraph",
        "content": "Show product sorter"
      },
      {
        "type": "checkbox",
        "id": "show-product-sorter",
        "label": "Yes"
      },
      {
        "type": "paragraph",
        "content": "Show product count for collections"
      },
      {
        "type": "checkbox",
        "id": "show-product-count-for-collections",
        "label": "Yes"
      },
      {
        "type": "paragraph",
        "content": "Show descriptions on nested collections page"
      },
      {
        "type": "checkbox",
        "id": "show-descriptions-on-nested-collections-page",
        "label": "Yes"
      },
      {
        "type": "paragraph",
        "content": "Show products on nested collections page"
      },
      {
        "type": "checkbox",
        "id": "show-products-on-nested-collections-page",
        "label": "Yes"
      },
      {
        "type": "select",
        "id": "show-vendor-with-thumbnail",
        "label": "Show Vendor with Thumbnail",
        "options": [
          {
            "value": "do-not-show",
            "label": "Do Not Show"
          },
          {
            "value": "above-product-title",
            "label": "Above Product Title"
          },
          {
            "value": "below-product-title",
            "label": "Below Product Title"
          }
        ]
      },
      {
        "type": "link_list",
        "id": "all-collections-linklist",
        "label": "“All collections” collection linklist\""
      },
      {
        "type": "paragraph",
        "content": "If you would like to specify which collections show on the \/collections page, create a linklist of collections."
      },
      {
        "type": "paragraph",
        "content": "Show “out of stock” badge"
      },
      {
        "type": "checkbox",
        "id": "show-out-of-stock-badge",
        "label": "Yes"
      },
      {
        "type": "paragraph",
        "content": "If checked and unavailable products are visible, a badge will indicate that the products are out of stock."
      },
      {
        "type": "select",
        "id": "collections-per-row",
        "label": "Collections per row",
        "options": [
          {
            "value": "2",
            "label": "2"
          },
          {
            "value": "3",
            "label": "3"
          },
          {
            "value": "4",
            "label": "4"
          }
        ]
      },
      {
        "type": "text",
        "id": "hidden-collection-limit",
        "label": "Hidden collection limit",
        "default": "0"
      },
      {
        "type": "paragraph",
        "content": "Hides collections that have less than this number of products."
      },
      {
        "type": "select",
        "id": "thumbnail-layout",
        "label": "Thumbnail layout",
        "options": [
          {
            "value": "ordered",
            "label": "Ordered"
          },
          {
            "value": "masonry",
            "label": "Masonry"
          }
        ]
      },
      {
        "type": "paragraph",
        "content": "Thumbnail ratio, alignment and crop settings will only be applied if thumbnail layout is set to 'ordered'."
      },
      {
        "type": "text",
        "id": "thumbnail-ratio",
        "label": "Thumbnail ratio",
        "default": "1:1"
      },
      {
        "type": "paragraph",
        "content": "Important: must be in the format w:h (i.e., 1:1 would be square)"
      },
      {
        "type": "select",
        "id": "thumbnail-alignment",
        "label": "Thumbnail alignment",
        "options": [
          {
            "value": "top",
            "label": "Top"
          },
          {
            "value": "middle",
            "label": "Middle"
          },
          {
            "value": "bottom",
            "label": "Bottom"
          }
        ]
      },
      {
        "type": "paragraph",
        "content": "Thumbnails cropped"
      },
      {
        "type": "checkbox",
        "id": "thumbnails-cropped",
        "label": "Yes"
      },
      {
        "type": "paragraph",
        "content": "If checked, thumbnails will be cropped to fit their container. If unchecked, thumbnails will fit inside the container."
      },
      {
        "type": "select",
        "id": "collection-feature-image",
        "label": "Collection feature image",
        "options": [
          {
            "value": "collection-image",
            "label": "Collection image"
          },
          {
            "value": "first-product-image",
            "label": "First product image"
          },
          {
            "value": "last-product-image",
            "label": "Last product image"
          }
        ]
      },
      {
        "type": "select",
        "id": "collection-header-placement",
        "label": "Collection header placement",
        "options": [
          {
            "value": "above-products",
            "label": "Above products"
          },
          {
            "value": "below-products",
            "label": "Below products"
          }
        ]
      },
      {
        "type": "paragraph",
        "content": "The collection header contains the collection description and (if present) the collection’s feature image."
      },
      {
        "type": "text",
        "id": "tag-button-limit",
        "label": "Tag button limit",
        "default": "10"
      },
      {
        "type": "paragraph",
        "content": "Tags will be shown as buttons until the amount of tags is equal or grater than this limit. If left blank tags will always be shown as buttons."
      },
      {
        "type": "select",
        "id": "tag-filtering-action",
        "label": "Tag Filtering Action",
        "options": [
          {
            "value": "build-tag-filter",
            "label": "Build tag filter"
          },
          {
            "value": "filter-one-tag-at-a-time",
            "label": "Filter one tag at a time"
          }
        ]
      },
      {
        "type": "select",
        "id": "tag-placement",
        "label": "Tag placement",
        "options": [
          {
            "value": "do-not-show",
            "label": "Do not show"
          },
          {
            "value": "sidebar",
            "label": "Sidebar"
          },
          {
            "value": "main-content",
            "label": "Main content"
          }
        ]
      },
      {
        "type": "page",
        "id": "collection-fallback-page",
        "label": "Show a page when collections are empty"
      },
      {
        "type": "paragraph",
        "content": "If a collection is featured on the homepage but is empty, it will fallback to a selected page."
      },
      {
        "type": "collection",
        "id": "recommended-products-collection",
        "label": "“Recommended” products collection"
      },
      {
        "type": "paragraph",
        "content": "You can choose to display “recommended” products on the homepage, collection pages and product pages."
      },
      {
        "type": "header",
        "content": "“Recommended” Collections Display Locations"
      },
      {
        "type": "checkbox",
        "id": "show-recommended-collections-on-homepage",
        "label": "on Homepage"
      },
      {
        "type": "checkbox",
        "id": "show-recommended-collections-on-collection",
        "label": "on Collection"
      },
      {
        "type": "checkbox",
        "id": "show-recommended-collections-on-product",
        "label": "on Product"
      },
      {
        "type": "checkbox",
        "id": "show-recommended-collections-on-cart",
        "label": "on Cart"
      },
      {
        "type": "checkbox",
        "id": "show-recommended-collections-on-page",
        "label": "on Page"
      },
      {
        "type": "checkbox",
        "id": "show-recommended-collections-on-blog",
        "label": "on Blog"
      },
      {
        "type": "checkbox",
        "id": "show-recommended-collections-on-article",
        "label": "on Article"
      },
      {
        "type": "checkbox",
        "id": "show-recommended-collections-on-search",
        "label": "on Search"
      },
      {
        "type": "checkbox",
        "id": "show-recommended-collections-on-404",
        "label": "on 404"
      }
    ]
  },
  {
    "name": "Sidebar",
    "settings": [
      {
        "type": "header",
        "content": "Display Locations"
      },
      {
        "type": "checkbox",
        "id": "show-sidebar-on-homepage",
        "label": "on Homepage"
      },
      {
        "type": "checkbox",
        "id": "show-sidebar-on-collection",
        "label": "on Collection"
      },
      {
        "type": "checkbox",
        "id": "show-sidebar-on-product",
        "label": "on Product"
      },
      {
        "type": "checkbox",
        "id": "show-sidebar-on-cart",
        "label": "on Cart"
      },
      {
        "type": "checkbox",
        "id": "show-sidebar-on-page",
        "label": "on Page"
      },
      {
        "type": "checkbox",
        "id": "show-sidebar-on-blog",
        "label": "on Blog"
      },
      {
        "type": "checkbox",
        "id": "show-sidebar-on-article",
        "label": "on Article"
      },
      {
        "type": "checkbox",
        "id": "show-sidebar-on-search",
        "label": "on Search"
      },
      {
        "type": "checkbox",
        "id": "show-sidebar-on-404",
        "label": "on 404"
      },
      {
        "type": "header",
        "content": "General"
      },
      {
        "type": "blog",
        "id": "sidebar-blog",
        "label": "Sidebar blog"
      },
      {
        "type": "link_list",
        "id": "sidebar-linklist",
        "label": "Sidebar linklist"
      },
      {
        "type": "link_list",
        "id": "sidebar-items-linklist",
        "label": "Sidebar items linklist"
      },
      {
        "type": "select",
        "id": "sidebar-placement",
        "label": "Sidebar placement",
        "options": [
          {
            "value": "left",
            "label": "Left"
          },
          {
            "value": "right",
            "label": "Right"
          }
        ]
      }
    ]
  },
  {
    "name": "Navigation",
    "settings": [
      {
        "type": "link_list",
        "id": "top-navbar-linklist-left",
        "label": "Top navbar linklist, left"
      },
      {
        "type": "link_list",
        "id": "top-navbar-linklist-right",
        "label": "Top navbar linklist, right"
      },
      {
        "type": "select",
        "id": "top-navbar-placement",
        "label": "Top navbar placement",
        "options": [
          {
            "value": "fixed-to-top",
            "label": "Fixed to top"
          },
          {
            "value": "static-top",
            "label": "Static top"
          }
        ]
      },
      {
        "type": "link_list",
        "id": "main-menu-linklist",
        "label": "Main menu linklist"
      },
      {
        "type": "paragraph",
        "content": "If no link list is selected the main menu will not be shown."
      },
      {
        "type": "select",
        "id": "main-menu-alignment",
        "label": "Main menu alignment",
        "options": [
          {
            "value": "left",
            "label": "Left"
          },
          {
            "value": "center",
            "label": "Center"
          },
          {
            "value": "right",
            "label": "Right"
          }
        ]
      },
      {
        "type": "link_list",
        "id": "footer-navbar-linklist-left",
        "label": "Footer navbar linklist, left"
      },
      {
        "type": "link_list",
        "id": "footer-navbar-linklist-right",
        "label": "Footer navbar linklist, right"
      },
      {
        "type": "select",
        "id": "footer-navbar-placement",
        "label": "Footer navbar placement",
        "options": [
          {
            "value": "fixed-to-bottom",
            "label": "Fixed to bottom"
          },
          {
            "value": "static-bottom",
            "label": "Static bottom"
          }
        ]
      },
      {
        "type": "select",
        "id": "search-placement",
        "label": "Search placement",
        "options": [
          {
            "value": "dont-show",
            "label": "Don't show"
          },
          {
            "value": "top-navbar",
            "label": "Top navbar"
          },
          {
            "value": "sidebar",
            "label": "Sidebar"
          }
        ]
      },
      {
        "type": "collection",
        "id": "typeahead-collection",
        "label": "Search typeahead collection"
      },
      {
        "type": "paragraph",
        "content": "We recommend you create a collection of all products (i.e., an automatic collection where price (and\/or inventory) is greater than 0."
      },
      {
        "type": "paragraph",
        "content": "Allow multiple level dropdowns"
      },
      {
        "type": "checkbox",
        "id": "multiple-level-dropdowns",
        "label": "Yes"
      },
      {
        "type": "paragraph",
        "content": "This will allow your dropdowns to go down more than one level. Use this with extreme caution, if your linklists are not crafted correctly you can cause an infinate loop that will result in a Shopify liquid error."
      },
      {
        "type": "paragraph",
        "content": "Use “Mega” dropdown menu"
      },
      {
        "type": "checkbox",
        "id": "use-mega-dropdown-menu",
        "label": "Yes"
      },
      {
        "type": "paragraph",
        "content": "If you have a large number of dropdowns or more than two levels of nested dropdowns, it is advisable to enable this setting."
      }
    ]
  },
  {
    "name": "Footer",
    "settings": [
      {
        "type": "header",
        "content": "Column 1"
      },
      {
        "type": "blog",
        "id": "column-1-blog",
        "label": "Blog"
      },
      {
        "type": "link_list",
        "id": "column-1-menu",
        "label": "Menu"
      },
      {
        "type": "textarea",
        "id": "column-1-text",
        "label": "Text"
      },
      {
        "type": "paragraph",
        "content": "The footer can have up to four columns which can contain none, one or all of a blog, menu (linklist), html text or social media icons."
      },
      {
        "type": "header",
        "content": "Column 2"
      },
      {
        "type": "blog",
        "id": "column-2-blog",
        "label": "Blog"
      },
      {
        "type": "link_list",
        "id": "column-2-menu",
        "label": "Menu"
      },
      {
        "type": "textarea",
        "id": "column-2-text",
        "label": "Text"
      },
      {
        "type": "paragraph",
        "content": "The footer can have up to four columns which can contain none, one or all of a blog, menu (linklist), html text or social media icons."
      },
      {
        "type": "header",
        "content": "Column 3"
      },
      {
        "type": "blog",
        "id": "column-3-blog",
        "label": "Blog"
      },
      {
        "type": "link_list",
        "id": "column-3-menu",
        "label": "Menu"
      },
      {
        "type": "textarea",
        "id": "column-3-text",
        "label": "Text"
      },
      {
        "type": "paragraph",
        "content": "The footer can have up to four columns which can contain none, one or all of a blog, menu (linklist), html text or social media icons."
      },
      {
        "type": "header",
        "content": "Column 4"
      },
      {
        "type": "blog",
        "id": "column-4-blog",
        "label": "Blog"
      },
      {
        "type": "link_list",
        "id": "column-4-menu",
        "label": "Menu"
      },
      {
        "type": "textarea",
        "id": "column-4-text",
        "label": "Text"
      },
      {
        "type": "paragraph",
        "content": "The footer can have up to four columns which can contain none, one or all of a blog, menu (linklist), html text or social media icons."
      }
    ]
  },
  {
    "name": "Cart",
    "settings": [
      {
        "type": "paragraph",
        "content": "Ajax Cart"
      },
      {
        "type": "checkbox",
        "id": "ajax-cart",
        "label": "Yes"
      },
      {
        "type": "paragraph",
        "content": "Important! - If you are using a file upload field in your product property line items it will not work while Ajax Cart is enabled."
      },
      {
        "type": "page",
        "id": "cart-page-content",
        "label": "Cart Page Content"
      },
      {
        "type": "collection",
        "id": "collection-to-link-to-if-cart-empty",
        "label": "Collection to link to if cart empty"
      },
      {
        "type": "checkbox",
        "id": "disable-cart",
        "label": "Disable cart"
      },
      {
        "type": "paragraph",
        "content": "If you're using Shopify as a brochure site until you are ready to sell online, you can disable the cart."
      },
      {
        "type": "text",
        "id": "free-shipping-threshold",
        "label": "Free shipping threshold",
        "default": "$100"
      },
      {
        "type": "paragraph",
        "content": "Hide prices if cart is disabled"
      },
      {
        "type": "checkbox",
        "id": "hide-prices-if-cart-disabled",
        "label": "Yes"
      },
      {
        "type": "paragraph",
        "content": "Show Agree with Terms and Conditions Checkbox"
      },
      {
        "type": "checkbox",
        "id": "show-agree-with-terms-and-conditions-checkbox",
        "label": "Yes"
      },
      {
        "type": "paragraph",
        "content": "Show shipping estimator"
      },
      {
        "type": "checkbox",
        "id": "show-shipping-estimator",
        "label": "Yes"
      }
    ]
  },
  {
    "name": "Age Verification",
    "settings": [
      {
        "type": "paragraph",
        "content": "Enable Age Verification"
      },
      {
        "type": "checkbox",
        "id": "enable-age-verification",
        "label": "Yes"
      },
      {
        "type": "text",
        "id": "verification-age",
        "label": "Verification Age",
        "default": "18"
      }
    ]
  },
  {
    "name": "Localization",
    "settings": [
      {
        "type": "textarea",
        "id": "localizations",
        "label": "Localizations"
      },
      {
        "type": "paragraph",
        "content": "Comma-separated list of translations in the format key: Value. Each on a newline is fine."
      },
      {
        "type": "text",
        "id": "long-date-format",
        "label": "Long date format",
        "default": "%d %B %Y at %H:%M"
      },
      {
        "type": "text",
        "id": "short-date-format",
        "label": "Short date format",
        "default": "%d %B %Y"
      }
    ]
  },
  {
    "name": "Money",
    "settings": [
      {
        "type": "paragraph",
        "content": "Show multiple currencies"
      },
      {
        "type": "checkbox",
        "id": "show-multiple-currencies",
        "label": "Yes"
      },
      {
        "type": "paragraph",
        "content": "Although you will be able to display prices on your store front in different currencies, Shopify will still process orders in your shop's currency."
      },
      {
        "type": "text",
        "id": "currency-switcher-default",
        "label": "Currency switcher default"
      },
      {
        "type": "paragraph",
        "content": "If left blank the currency switcher will be set to your shops default currency."
      },
      {
        "type": "text",
        "id": "supported-currencies",
        "label": "Supported currencies"
      },
      {
        "type": "paragraph",
        "content": "Separate your currency codes with a space. Use the ISO 4217 3-letter currency code. Click [here](http:\/\/www.xe.com\/iso4217.php) for a complete list of currency codes. E.g., NZD USD CAD"
      },
      {
        "type": "select",
        "id": "currency-switcher-position",
        "label": "Currency switcher position",
        "options": [
          {
            "value": "top-navbar",
            "label": "Top navbar"
          },
          {
            "value": "footer-navbar",
            "label": "Footer navbar"
          }
        ]
      },
      {
        "type": "select",
        "id": "show-currency-with-prices",
        "label": "Show currency with prices",
        "options": [
          {
            "value": "with-currency",
            "label": "With currency"
          },
          {
            "value": "without-currency",
            "label": "Without currency"
          }
        ]
      },
      {
        "type": "paragraph",
        "content": "E.g., $123.45 NZD"
      },
      {
        "type": "paragraph",
        "content": "Append “plus taxes” to prices"
      },
      {
        "type": "checkbox",
        "id": "append-plus-taxes-to-price",
        "label": "Yes"
      },
      {
        "type": "paragraph",
        "content": "You can localize the wording in the Localization settings using “plus-taxes: + GST”"
      }
    ]
  },
  {
    "name": "Social",
    "settings": [
      {
        "type": "text",
        "id": "social-links-dribbble",
        "label": "Dribble"
      },
      {
        "type": "text",
        "id": "social-links-email",
        "label": "Email"
      },
      {
        "type": "text",
        "id": "social-links-facebook",
        "label": "Facebook"
      },
      {
        "type": "text",
        "id": "social-links-flickr",
        "label": "Flickr"
      },
      {
        "type": "text",
        "id": "social-links-foursquare",
        "label": "Foursquare"
      },
      {
        "type": "text",
        "id": "social-links-github",
        "label": "Github"
      },
      {
        "type": "text",
        "id": "social-links-google-plus",
        "label": "Google+"
      },
      {
        "type": "text",
        "id": "social-links-instagram",
        "label": "Instagram"
      },
      {
        "type": "text",
        "id": "social-links-linkedin",
        "label": "LinkedIn"
      },
      {
        "type": "text",
        "id": "social-links-pinterest",
        "label": "Pinterest"
      },
      {
        "type": "blog",
        "id": "social-links-rss",
        "label": "RSS"
      },
      {
        "type": "text",
        "id": "social-links-skype",
        "label": "Skype"
      },
      {
        "type": "text",
        "id": "social-links-stack-exchange",
        "label": "Stack Exchange"
      },
      {
        "type": "text",
        "id": "social-links-stack-overflow",
        "label": "Stack Overflow"
      },
      {
        "type": "text",
        "id": "social-links-tumblr",
        "label": "Tumblr"
      },
      {
        "type": "text",
        "id": "social-links-twitter",
        "label": "Twitter"
      },
      {
        "type": "text",
        "id": "social-links-vimeo",
        "label": "Vimeo"
      },
      {
        "type": "text",
        "id": "social-links-youtube",
        "label": "YouTube"
      },
      {
        "type": "paragraph",
        "content": "Enter the url for your social accounts into the fields for each service you want to show. Services left blank wont be shown."
      },
      {
        "type": "select",
        "id": "social-links-placement",
        "label": "Social links placement",
        "options": [
          {
            "value": "top-navbar-left",
            "label": "Top navbar left"
          },
          {
            "value": "top-navbar-right",
            "label": "Top navbar right"
          },
          {
            "value": "footer-column-1",
            "label": "Footer column 1"
          },
          {
            "value": "footer-column-2",
            "label": "Footer column 2"
          },
          {
            "value": "footer-column-3",
            "label": "Footer column 3"
          },
          {
            "value": "footer-column-4",
            "label": "Footer column 4"
          },
          {
            "value": "sidebar",
            "label": "Sidebar"
          },
          {
            "value": "footer-navbar-left",
            "label": "Footer navbar left"
          },
          {
            "value": "footer-navbar-right",
            "label": "Footer navbar right"
          }
        ]
      },
      {
        "type": "text",
        "id": "instagram-default-hashtag",
        "label": "Instagram default hashtag"
      },
      {
        "type": "paragraph",
        "content": "A default hashtag for all instagram feeds to use if a page specific one is not set."
      },
      {
        "type": "text",
        "id": "instagram-client-id",
        "label": "Instagram client id"
      },
      {
        "type": "paragraph",
        "content": "You can obtain a client id registering a new Instagram API client app at [http:\/\/instagram.com\/developer\/clients\/register\/](http:\/\/instagram.com\/developer\/clients\/register\/)"
      },
      {
        "type": "textarea",
        "id": "instagram-blacklist",
        "label": "Instagram blacklist"
      },
      {
        "type": "paragraph",
        "content": "A comma separated list of image ids that you don't wish to show in your instagram feeds."
      },
      {
        "type": "select",
        "id": "newsletter-platform",
        "label": "Newsletter platform",
        "options": [
          {
            "value": "shopify",
            "label": "Shopify"
          },
          {
            "value": "campaign-monitor",
            "label": "Campaign Monitor"
          },
          {
            "value": "mailchimp",
            "label": "MailChimp"
          }
        ]
      },
      {
        "type": "select",
        "id": "newsletter-signup-placement",
        "label": "Newsletter signup placement",
        "options": [
          {
            "value": "dont-show",
            "label": "Don't show"
          },
          {
            "value": "top-navbar-left",
            "label": "Top navbar left"
          },
          {
            "value": "top-navbar-right",
            "label": "Top navbar right"
          },
          {
            "value": "sidebar",
            "label": "Sidebar"
          },
          {
            "value": "footer-column-1",
            "label": "Footer column 1"
          },
          {
            "value": "footer-column-2",
            "label": "Footer column 2"
          },
          {
            "value": "footer-column-3",
            "label": "Footer column 3"
          },
          {
            "value": "footer-column-4",
            "label": "Footer column 4"
          },
          {
            "value": "footer-navbar-left",
            "label": "Footer navbar left"
          },
          {
            "value": "footer-navbar-right",
            "label": "Footer navbar right"
          }
        ]
      },
      {
        "type": "text",
        "id": "newsletter-form-action-url",
        "label": "Newsletter submit URL"
      },
      {
        "type": "paragraph",
        "content": "Paste in Campaign Monitor or MailChimp’s form action URL. Don’t paste the entire form code; just the “action” parameter."
      }
    ]
  },
  {
    "name": "Advanced",
    "settings": [
      {
        "type": "textarea",
        "id": "sass-variables",
        "label": "SASS variables"
      },
      {
        "type": "paragraph",
        "content": "Feel free to override any of Bootstraps SASS variables here."
      },
      {
        "type": "textarea",
        "id": "custom-css",
        "label": "Custom CSS"
      },
      {
        "type": "paragraph",
        "content": "Feel free to override any of the CSS here. This is included inside the stylesheet at the end. SCSS allowed."
      },
      {
        "type": "textarea",
        "id": "custom-checkout-css",
        "label": "Custom checkout CSS"
      },
      {
        "type": "paragraph",
        "content": "Feel free to override any of the checkout CSS here. This is included inside the stylesheet at the end. SCSS is not allowed."
      },
      {
        "type": "textarea",
        "id": "custom-header-code",
        "label": "Custom header code"
      },
      {
        "type": "paragraph",
        "content": "Anything to be placed within the site's head tag."
      },
      {
        "type": "textarea",
        "id": "custom-footer-code",
        "label": "Custom footer code"
      },
      {
        "type": "paragraph",
        "content": "Anything to be placed before the site’s closing body tag."
      },
      {
        "type": "link_list",
        "id": "advanced-homepage-layout",
        "label": "Advanced Homepage Layout"
      },
      {
        "type": "paragraph",
        "content": "Define a linklist for which to pull the homepage content from. This is handy if you want to reorder the homepage content or add in extra sections without touching the code."
      },
      {
        "type": "paragraph",
        "content": "Development mode"
      },
      {
        "type": "checkbox",
        "id": "development-mode",
        "label": "Yes"
      }
    ]
  }
]