<?xml version="1.0" encoding="utf-8"?>
<!-- Generator: Adobe Illustrator 19.2.1, SVG Export Plug-In . SVG Version: 6.00 Build 0)  -->
<svg version="1.1" id="Layer_1" xmlns="http://www.w3.org/2000/svg" xmlns:xlink="http://www.w3.org/1999/xlink" x="0px" y="0px"
	 viewBox="0 0 78.8 75.2" style="enable-background:new 0 0 78.8 75.2;" xml:space="preserve">
<style type="text/css">
	.st0{fill:#53E1E3;}
</style>
<g>
	<path class="st0" d="M20.8,20.6c-4-9.6-0.1-14.3,0.1-14.5L21,6c0.2-0.4,0.6-0.8,1-0.8c0.5,0,1,0.5,1.3,0.8l4.4,9.9l1.4-0.6
		l-4.4-9.9l-0.1-0.1c-0.1-0.2-1.1-1.5-2.6-1.5c-0.8,0-1.6,0.5-2.2,1.5c-0.5,0.6-4.5,5.9-0.3,16L20.8,20.6z"/>
	<circle class="st0" cx="27.9" cy="29.4" r="1.4"/>
	<circle class="st0" cx="38.8" cy="29.4" r="1.4"/>
	<path class="st0" d="M44.7,35.1c0.4,0.1,0.8,0.1,1.2,0.1c2.3,0,3.1-1.3,3.1-1.4l0.5-0.9l-1-0.2c-1.3-0.2-2.1-0.5-2.6-0.7
		c2.9,0.3,4.5-1.1,4.6-1.2l1.1-1l-1.5-0.2c-0.9-0.2-1-1.6-1-1.6c-0.3-2.8-1.3-5.3-2.9-7.2l1.2,0.5c4.3-10.1,0.2-15.4-0.3-16
		c-0.6-1-1.4-1.4-2.2-1.5c-1.5,0-2.4,1.3-2.6,1.5l-4.5,10.1l1.4,0.6l4.4-10c0.2-0.3,0.8-0.8,1.3-0.8c0.4,0,0.8,0.5,1,0.8L46,6.1
		c0.2,0.2,4.1,4.9,0.1,14.4c-2.6-3.2-6.7-5.1-11.7-5.2v-0.1c-7.4-0.6-15.6,4-16.6,12.7c0,0-0.1,1.4-1,1.6l-1.5,0.2l1.1,1
		c0.1,0.1,1.7,1.6,4.6,1.2c-0.5,0.2-1.3,0.5-2.6,0.7l-1,0.2l0.5,0.9c0,0.1,0.8,1.4,3.1,1.4c0.4,0,0.8,0,1.2-0.1L22,33.5
		c-0.4,0.1-0.8,0.1-1.1,0.1c1.2-0.4,1.9-0.9,2.2-1.6c0.3-0.6,0.2-1.2,0-1.5L22.8,30l-0.6,0.2c-1.7,0.5-2.9,0.3-3.7,0
		c0.6-0.7,0.8-1.7,0.9-2.2c0.9-7.6,7.9-11.6,14.4-11.4v0.1c5.8-0.1,13,2.8,14,11.2c0,0.6,0.2,1.6,0.9,2.3c-0.8,0.3-2,0.5-3.7,0
		L44.4,30l-0.3,0.5c-0.2,0.3-0.3,0.9,0,1.5c0.3,0.7,1.1,1.2,2.2,1.6c-0.3,0-0.7,0-1.1-0.1L44.7,35.1z"/>
	<path class="st0" d="M40.9,39.8v-0.2c0.2-1.6,2.1-2.5,2.1-2.5l-0.3-0.7l-0.3-0.7c-0.1,0-2.7,1.2-3,3.6c-0.2,0.5-1.8,4.3-5.9,4.4
		v0.8l-0.1-0.7c-5.3,0.4-6.5-4.2-6.5-4.3c-0.3-2.5-2.9-3.7-3-3.7l-0.6,1.4c0,0,1.9,0.9,2.1,2.6c0,0,0.8,3.5,4.2,4.9
		c0,1.5,0.1,5.6,3.5,5.6l0,0c1,0,1.9-0.3,2.5-0.9c1.1-1.2,1.1-3,1.1-4.4c0-0.1,0-0.3,0-0.4C39.8,43,40.9,39.9,40.9,39.8z M34.7,48.3
		c-0.3,0.3-0.8,0.5-1.4,0.5l0,0c-1.3,0-1.9-1.1-2-3.6c0.5,0.1,1.1,0.2,1.7,0.2c0.2,0,0.4,0,0.7,0l0,0l0,0l0,0l0,0
		c0.6,0,1.2-0.1,1.7-0.2C35.3,46.2,35.4,47.6,34.7,48.3z"/>
	<path class="st0" d="M42.7,67.1c-0.5,2.3-2.9,2.8-3.3,2.8c-2.4-0.3-2.6-1.9-2.7-2.1V54.6h-6.8v12.8c0.2,2.1-2.6,2.5-2.7,2.5
		c-1,0.1-1.8-0.1-2.3-0.6c-0.7-0.6-0.8-1.5-0.8-1.5V40.4h-1.5v27.5c0,0.1,0.1,1.6,1.2,2.6c0.8,0.8,2,1.1,3.5,0.9s4.3-1.3,4.1-4.1
		V56.1h3.8v11.8c0.1,1.1,1,3.3,4.1,3.5h0.1h0.1c1.4-0.1,4.1-1.2,4.7-4.1V42.4h-1.5V67.1z"/>
	<path class="st0" d="M45,27.7c0.2-2.7-1.8-5.2-4.6-5.8c-1.6-0.3-3.2,0.1-4.5,1.3c-0.3,0.3-0.6,0.7-1,1.2s-0.9,1.3-1.2,1.3
		c-0.4,0-0.8-0.7-1.2-1.3c-0.3-0.5-0.7-1.1-1.1-1.5c-1-0.8-2.4-1.1-3.8-0.9c-2.6,0.4-5,2.7-5.7,5.5l1.4,0.4c0.6-2.2,2.5-4,4.5-4.4
		c1-0.2,1.9,0,2.6,0.6c0.2,0.2,0.5,0.6,0.8,1.1c0.6,1,1.3,2.1,2.6,2c1-0.1,1.7-1.1,2.3-1.9c0.3-0.4,0.5-0.7,0.7-0.9
		c0.7-0.6,1.8-1.3,3.2-1c2.1,0.5,3.5,2.3,3.4,4.3L45,27.7z"/>
	<path class="st0" d="M52.6,33.8l-0.5,1.4c2.9,1,2.8,4.8,2.8,5v15.4c0,0.9-0.3,1.5-1,1.9c-0.7,0.5-1.9,0.5-2.7,0
		c-0.5-0.3-1.1-0.8-1.1-1.8V41.9L45,47l1.1,1.1l2.5-2.5v10.1c0,1.3,0.7,2.5,1.8,3.1c0.7,0.4,1.5,0.6,2.2,0.6s1.5-0.2,2.1-0.5
		c1.1-0.7,1.7-1.8,1.7-3.2V40.3C56.5,40.1,56.6,35.2,52.6,33.8z"/>
	<path class="st0" d="M60,26l-0.8,1.6c-1.7,3.2-5.3,2.4-5.5,2.4l-0.3,1.5c1.3,0.3,3.9,0.3,5.9-1.4c-0.1,0.4-0.2,0.8-0.4,1.2
		c-0.6,0.9-1.7,1.5-3.2,1.8l0.3,1.5c2-0.4,3.4-1.2,4.2-2.5c1.2-2,0.5-4.2,0.5-4.3L60,26z"/>
	<path class="st0" d="M33.2,41.1c1.7,0,2.8-1.8,3.1-3.6c0.2-1.2,0-2.1-0.6-2.8c-0.4-0.5-1.1-1-2.5-1c-1.3,0-2.1,0.5-2.4,1
		c-0.6,0.7-0.8,1.7-0.7,2.9C30.3,38.9,31.5,41.1,33.2,41.1z M31.9,35.6c0.3-0.3,0.7-0.5,1.3-0.5c0.6,0,1.1,0.2,1.4,0.5
		c0.3,0.3,0.4,0.9,0.2,1.6c-0.2,1.1-0.9,2.4-1.6,2.4c-0.7,0-1.5-1.4-1.6-2.3C31.5,36.5,31.6,36,31.9,35.6z"/>
	<polygon class="st0" points="50.4,72.6 52.1,72.6 52.1,69.7 55.6,69.7 55.6,68.3 52.1,68.3 52.1,66.7 56.1,66.7 56.1,65.3 
		50.4,65.3 	"/>
	<rect x="57.5" y="65.3" class="st0" width="1.6" height="7.3"/>
	<path class="st0" d="M63.9,65.3H61v7.3h2.9c2.3,0,4-1.6,4-3.6l0,0C67.8,66.8,66.2,65.3,63.9,65.3z M66.1,68.9
		c0,1.3-0.9,2.2-2.2,2.2h-1.3v-4.4h1.3C65.2,66.7,66.1,67.6,66.1,68.9L66.1,68.9z"/>
	<path class="st0" d="M72.9,65.1c-2.3,0-4,1.7-4,3.8l0,0c0,2.1,1.6,3.8,3.9,3.8s4-1.7,4-3.8l0,0C76.8,66.8,75.2,65.1,72.9,65.1z
		 M75.1,68.9c0,1.3-0.9,2.3-2.2,2.3c-1.3,0-2.3-1-2.3-2.3l0,0c0-1.2,0.9-2.3,2.2-2.3S75.1,67.7,75.1,68.9L75.1,68.9z"/>
	<path class="st0" d="M8.8,2.6C7.6,2.4,6.4,2.9,5.7,3.9C4.6,3.6,3.3,4.1,2.6,5c-1,1.3-0.7,3.2,0.6,4.2l4.2,3.1
		c0.3,0.2,0.7,0.4,1.1,0.4c0.2,0,0.5,0,0.7-0.1c0.6-0.2,1-0.8,1.1-1.4l0.9-5.1C11.5,4.5,10.4,2.9,8.8,2.6z M9.7,5.8l-0.9,5.1
		c0,0.2-0.2,0.2-0.2,0.3c-0.1,0-0.2,0.1-0.3,0L4.1,8.1c-0.3-0.2-0.5-0.6-0.6-1s0-0.8,0.3-1.1C4.1,5.6,4.5,5.3,5,5.3
		c0.2,0,0.4,0,0.5,0.1c0.5,0.2,1.1,0,1.4-0.5c0.3-0.6,1-0.9,1.6-0.8C9.3,4.2,9.9,5,9.7,5.8z"/>
</g>
</svg>
