<?xml version="1.0" encoding="utf-8"?>
<!-- Generator: Adobe Illustrator 19.2.1, SVG Export Plug-In . SVG Version: 6.00 Build 0)  -->
<svg version="1.1" id="Layer_1" xmlns="http://www.w3.org/2000/svg" xmlns:xlink="http://www.w3.org/1999/xlink" x="0px" y="0px"
	 viewBox="0 0 63.4 123.4" style="enable-background:new 0 0 63.4 123.4;" xml:space="preserve">
<style type="text/css">
	.st0{fill:#CFCFCE;}
</style>
<g>
	<circle class="st0" cx="28.6" cy="37.5" r="1.8"/>
	<circle class="st0" cx="35.9" cy="37.5" r="1.8"/>
	<path class="st0" d="M32,43c0,0,0.1,0,0.1,0c0.6,0,1.5-0.2,2.4-1c0.4-0.4,0.4-1,0-1.4c-0.4-0.4-1-0.4-1.4,0c-0.4,0.3-0.7,0.5-1,0.5
		c-0.5,0-0.9-0.4-0.9-0.4c-0.4-0.4-1-0.5-1.4-0.1c-0.4,0.4-0.5,1-0.1,1.4C29.9,42,30.7,43,32,43z"/>
	<path class="st0" d="M31.4,26c-0.1-0.3-0.4-0.5-0.7-0.6c-0.3-0.1-0.7,0-0.9,0.3c-1.7,1.7-6.9,6.3-9.9,6.6c-0.5,0.1-0.9,0.6-0.9,1.1
		c0.1,0.5,0.5,0.9,1,0.9c0,0,0.1,0,0.1,0c3.2-0.3,7.4-3.8,9.6-5.8c-0.2,1-0.7,1.8-0.8,1.8c-0.3,0.3-0.3,0.8,0,1.2s0.7,0.5,1.1,0.4
		c6.9-2.3,6.6-7.4,6.6-7.6c0-0.5-0.5-0.9-1.1-0.9c-0.5,0-1,0.5-0.9,1.1c0,0.1,0.1,2.7-3,4.5C31.9,28,31.9,27,31.4,26z"/>
	<path class="st0" d="M37.4,24.2c0,0.1-0.2,7.1,6.6,9.9c0.1,0.1,0.3,0.1,0.4,0.1c0.4,0,0.8-0.2,0.9-0.6c0.2-0.5,0-1.1-0.5-1.3
		c-5.5-2.3-5.4-7.8-5.4-8c0-0.6-0.4-1-1-1C37.9,23.2,37.4,23.7,37.4,24.2z"/>
	<path class="st0" d="M19.7,30.1c0.1,0,0.2,0.1,0.3,0.1c0.4,0,0.8-0.3,0.9-0.7c3.6-10.1,12.8-8.1,13.2-8c0.5,0.1,1.1-0.2,1.2-0.7
		c0.1-0.5-0.2-1.1-0.7-1.2c-0.1,0-11.4-2.5-15.6,9.3C18.9,29.4,19.2,29.9,19.7,30.1z"/>
	<path class="st0" d="M40.1,23.5c0,0,3.1,1.4,4,6.9c0.1,0.5,0.5,0.8,1,0.8c0.1,0,0.1,0,0.2,0c0.5-0.1,0.9-0.6,0.8-1.2
		c-1.1-6.7-5.1-8.3-5.2-8.4c-0.5-0.2-1.1,0-1.3,0.5C39.3,22.8,39.6,23.3,40.1,23.5z"/>
	<path class="st0" d="M32,46.7C32.1,46.7,32.1,46.7,32,46.7c6.2,0,12.2-4.9,13.3-10.6c0.1-0.5-0.3-1.1-0.8-1.2
		c-0.5-0.1-1.1,0.3-1.2,0.8c-0.9,4.8-6.1,8.9-11.3,9c0,0,0,0,0,0c-4.7,0-9.2-3.4-10.6-8c-0.2-0.5-0.7-0.8-1.3-0.7
		c-0.5,0.2-0.8,0.7-0.7,1.3C21.2,42.8,26.4,46.7,32,46.7z"/>
	<path class="st0" d="M32.3,16.6c4.3,1.2,4.6,3.6,4.6,3.8c0,0.5,0.5,0.9,1,0.9c0,0,0,0,0.1,0c0.6,0,1-0.5,0.9-1.1
		c0-0.2-0.3-3.9-6.1-5.6c-0.5-0.2-1.1,0.2-1.2,0.7S31.8,16.4,32.3,16.6z"/>
	<path class="st0" d="M17.8,63.5c-0.6-0.3-1.4-0.1-1.7,0.5c-0.1,0.1-1.5,2.7,0,5.3c0.2,0.4,0.7,0.6,1.1,0.6c0.2,0,0.4-0.1,0.6-0.2
		c0.6-0.3,0.8-1.1,0.5-1.7c-0.8-1.3,0-2.7,0-2.8C18.6,64.6,18.4,63.8,17.8,63.5z"/>
	<path class="st0" d="M47.4,62.1c0.4,0,0.8-0.3,0.9-0.7c1.4-4,0.1-7.9,0-8c0,0,0,0,0-0.1l0.3-0.2c0.3-0.2,0.5-0.6,0.4-1
		c-1.2-6.8-5.5-8.9-5.7-9c-0.5-0.2-1.1,0-1.3,0.5c-0.2,0.5,0,1.1,0.5,1.3c0.1,0.1,3.3,1.7,4.5,7l-3,2.2c-0.6-1.2-1.6-2.8-2.4-3.3
		c-0.3-0.2-0.7-0.3-1-0.1c-0.3,0.2-0.5,0.5-0.5,0.9v0.7H24.6v-0.7c0-0.4-0.2-0.7-0.5-0.9c-0.3-0.2-0.7-0.1-1,0.1
		c-0.8,0.6-1.8,2.2-2.4,3.3l-3-2.2c1.1-5.2,4.3-6.9,4.5-7c0.5-0.2,0.7-0.8,0.5-1.3c-0.2-0.5-0.8-0.7-1.3-0.5c-0.2,0.1-4.5,2.3-5.7,9
		c-0.1,0.4,0.1,0.8,0.4,1l0.4,0.3c-0.2,0.6-1.3,4.3,0,8.1c0.2,0.5,0.7,0.9,1.2,0.9c0.1,0,0.3,0,0.4-0.1c0.7-0.2,1-0.9,0.8-1.6
		c-0.8-2.2-0.5-4.5-0.2-5.7l1.9,1.4c0.2,0.2,0.5,0.2,0.8,0.2c0.3-0.1,0.5-0.3,0.7-0.5c0.2-0.4,0.5-0.9,0.7-1.4v10.9V74
		c0,0.6,0.4,1,1,1h2.5v2.6c-0.9,0.2-1.7,0.5-2.3,1.2c-1.2,1.2-1.2,2.9-1.2,3c0,0.5,0.5,1,1,1h7.2c0.3,0,0.6-0.1,0.8-0.4
		s0.3-0.6,0.2-0.9c-0.7-2.8-2.4-3.8-3.7-4V75H30c0.3,0,0.5-0.1,0.7-0.3s0.3-0.5,0.3-0.8c0,0-0.2-2.5,1-2.6c0.1,0,0.2,0,0.3-0.1
		c0.1,0,0.2,0.1,0.3,0.1c1.2,0.1,1,2.6,1,2.6c0,0.3,0.1,0.6,0.3,0.8s0.5,0.3,0.7,0.3h1.8v2.6c-0.9,0.2-1.7,0.5-2.3,1.2
		c-1.2,1.2-1.2,2.9-1.2,3c0,0.5,0.5,1,1,1H41c0.3,0,0.6-0.1,0.8-0.4s0.3-0.6,0.2-0.9c-0.7-2.8-2.4-3.8-3.7-4V75h2.6c0.6,0,1-0.4,1-1
		v-8.3V54.7c0.3,0.5,0.5,0.9,0.7,1.4c0.1,0.3,0.4,0.5,0.7,0.5c0.3,0.1,0.6,0,0.8-0.2l2.4-1.8c0.3,1.1,0.7,3.7-0.1,6.2
		c-0.2,0.5,0.1,1.1,0.6,1.3C47.2,62.1,47.3,62.1,47.4,62.1z M29.3,80.7h-4.5c0.1-0.2,0.2-0.4,0.4-0.6c0.4-0.4,1.1-0.6,2-0.6
		c0.1,0,0.1,0,0.2,0C27.4,79.4,28.5,79.2,29.3,80.7z M39.6,80.7h-4.5c0.1-0.2,0.2-0.4,0.4-0.6c0.4-0.4,1.1-0.6,2-0.6
		c0.1,0,0.1,0,0.2,0C37.8,79.4,38.8,79.3,39.6,80.7z M32.6,64.6h-0.7h-7.3v-5.9h15.4v5.9H32.6z M39.9,54.3v2.4H24.6v-2.4H39.9z
		 M39.9,73h-4.4c-0.1-1.5-0.8-3.5-2.8-3.7c-0.2,0-0.3,0-0.5,0.1c-0.1-0.1-0.3-0.1-0.5-0.1c-2,0.2-2.7,2.1-2.8,3.7h-4.4v-6.3h7.3h0.7
		h7.3V73z"/>
	<path class="st0" d="M48.6,64.1c-0.3-0.5-0.9-0.6-1.4-0.4c-0.5,0.3-0.6,0.9-0.4,1.4c0,0,0.9,1.6,0,3.1c-0.3,0.5-0.1,1.1,0.4,1.4
		c0.2,0.1,0.3,0.1,0.5,0.1c0.3,0,0.7-0.2,0.9-0.5C50,66.6,48.7,64.2,48.6,64.1z"/>
</g>
</svg>
